%YAML 1.1
%TAG !u! tag:unity3d.com,2011:
--- !u!162 &1
EditorUserSettings:
  m_ObjectHideFlags: 0
  serializedVersion: 4
  m_ConfigSettings:
    RecentlyUsedScenePath-0:
      value: 22424703114646680e0b0227036c6c111b07142f1f2b233e2867083debf42d
      flags: 0
    RecentlyUsedScenePath-1:
      value: 224247031146467a1e1d0936036c7a0802120a242d24357f02251973d1e53578d2e824fda8293c393707fc7320310234b23e0102f80c441e1f07e917
      flags: 0
    RecentlyUsedScenePath-2:
      value: 22424703114646680e0b0227036c78111b1258053a2d347e38271427fb
      flags: 0
    RecentlyUsedScenePath-3:
      value: 22424703114646680e0b0227036c72151802563f22213229
      flags: 0
    vcSharedLogLevel:
      value: 0d5e400f0650
      flags: 0
  m_VCAutomaticAdd: 1
  m_VCDebugCom: 0
  m_VCDebugCmd: 0
  m_VCDebugOut: 0
  m_SemanticMergeMode: 2
  m_VCShowFailedCheckout: 1
  m_VCOverwriteFailedCheckoutAssets: 1
  m_VCProjectOverlayIcons: 1
  m_VCHierarchyOverlayIcons: 1
  m_VCOtherOverlayIcons: 1
  m_VCAllowAsyncUpdate: 1
